"","University","Cluster"
"12","DePaul University",1
"13","Duke University",1
"25","Katholieke Universiteit Leuven",1
"26","King's College London",1
"27","London School of Economics and Political Science",1
"29","Macquarie University*",1
"31","McMaster University",1
"34","Northwestern University",1
"45","State University of New York at Stony Brook",1
"47","Temple University",1
"49","The New School",1
"51","Tulane University",1
"57","University of California, Davis",1
"64","University of California, Santa Cruz",1
"65","University of Cambridge",1
"68","University of Chicago (CHSS)",1
"73","University of Guelph",1
"74","University of Hawai'i at Manoa",1
"76","University of Illinois at Urbana-Champaign",1
"82","University of Memphis",1
"86","University of Missouri",1
"87","University of Nebraska, Lincoln",1
"88","University of New Mexico",1
"91","University of Oklahoma",1
"97","University of Rochester",1
"106","University of Washington",1
"5","Boston College",2
"10","Columbia University",2
"14","Duquesne University",2
"15","Emory University",2
"30","Massachusetts Institute of Technology",2
"35","Ohio State University",2
"39","Rutgers University",2
"42","St Andrews and Stirling Graduate Programme in Philosophy",2
"43","Stanford University",2
"56","University of California, Berkeley",2
"58","University of California, Irvine",2
"60","University of California, Los Angeles",2
"61","University of California, Riverside",2
"67","University of Chicago",2
"79","University of Kentucky",2
"95","University of Pittsburgh",2
"110","Villanova University",2
"115","Yale University",2
"3","Baylor University",3
"6","Boston University",3
"11","Cornell University",3
"17","Fordham University",3
"40","Saint Louis University",3
"48","The Catholic University of America*",3
"75","University of Illinois at Chicago",3
"77","University of Iowa",3
"81","University of Massachusetts Amherst",3
"90","University of Notre Dame",3
"94","University of Pennsylvania",3
"99","University of South Carolina",3
"100","University of South Florida",3
"103","University of Toronto",3
"105","University of Virginia",3
"108","University of York",3
"114","William Marsh Rice University",3
"1","Arizona State University",4
"4","Binghamton University",4
"7","Bowling Green State University",4
"18","Georgetown University",4
"22","Indiana University Bloomington (HPS)",4
"23","Institut Jean Nicod",4
"28","Loyola University Chicago",4
"32","Michigan State University",4
"36","Pennsylvania State University",4
"41","Southern Illinois University",4
"50","The University of Melbourne*",4
"59","University of California, Irvine (LPS)",4
"69","University of Cincinnati",4
"78","University of Kansas",4
"92","University of Oregon",4
"96","University of Pittsburgh (HPS)",4
"112","Wayne State University",4
"9","Carnegie Mellon University",5
"16","Florida State University",5
"20","Harvard University",5
"21","Indiana University Bloomington",5
"24","Johns Hopkins University",5
"33","New York University",5
"37","Princeton University",5
"46","Syracuse University",5
"54","University of British Columbia",5
"62","University of California, San Diego",5
"66","University of Cambridge (HPS)",5
"83","University of Miami",5
"89","University of North Carolina at Chapel Hill",5
"101","University of Southern California",5
"2","Australian National University",6
"8","Brown University",6
"19","Graduate Center of the City University of New York",6
"52","University College London",6
"53","University of Arizona",6
"55","University of Calgary",6
"63","University of California, Santa Barbara",6
"71","University of Connecticut",6
"85","University of Minnesota Twin Cities*",6
"98","University of Sheffield",6
"102","University of Texas at Austin",6
"104","University of Utah",6
"107","University of Wisconsin-Madison",6
"109","Vanderbilt University",6
"38","Purdue University",7
"44","State University of New York at Buffalo",7
"70","University of Colorado at Boulder",7
"72","University of Edinburgh",7
"80","University of Maryland, College Park",7
"84","University of Michigan",7
"93","University of Oxford",7
"111","Washington University in St. Louis",7
"113","Western University",7
"116","York University",7
