"","University","Cluster"
"1","Arizona State University",1
"4","Binghamton University",1
"7","Bowling Green State University",1
"18","Georgetown University",1
"22","Indiana University Bloomington (HPS)",1
"23","Institut Jean Nicod",1
"28","Loyola University Chicago",1
"32","Michigan State University",1
"36","Pennsylvania State University",1
"38","Purdue University",1
"41","Southern Illinois University",1
"44","State University of New York at Buffalo",1
"50","The University of Melbourne*",1
"59","University of California, Irvine (LPS)",1
"69","University of Cincinnati",1
"70","University of Colorado at Boulder",1
"72","University of Edinburgh",1
"77","University of Iowa",1
"78","University of Kansas",1
"81","University of Massachusetts Amherst",1
"92","University of Oregon",1
"96","University of Pittsburgh (HPS)",1
"99","University of South Carolina",1
"105","University of Virginia",1
"112","Wayne State University",1
"114","William Marsh Rice University",1
"2","Australian National University",2
"8","Brown University",2
"19","Graduate Center of the City University of New York",2
"30","Massachusetts Institute of Technology",2
"34","Northwestern University",2
"35","Ohio State University",2
"39","Rutgers University",2
"42","St Andrews and Stirling Graduate Programme in Philosophy",2
"43","Stanford University",2
"49","The New School",2
"51","Tulane University",2
"52","University College London",2
"53","University of Arizona",2
"60","University of California, Los Angeles",2
"63","University of California, Santa Barbara",2
"67","University of Chicago",2
"82","University of Memphis",2
"86","University of Missouri",2
"88","University of New Mexico",2
"95","University of Pittsburgh",2
"98","University of Sheffield",2
"102","University of Texas at Austin",2
"109","Vanderbilt University",2
"9","Carnegie Mellon University",3
"16","Florida State University",3
"20","Harvard University",3
"21","Indiana University Bloomington",3
"24","Johns Hopkins University",3
"33","New York University",3
"37","Princeton University",3
"46","Syracuse University",3
"54","University of British Columbia",3
"55","University of Calgary",3
"62","University of California, San Diego",3
"66","University of Cambridge (HPS)",3
"71","University of Connecticut",3
"83","University of Miami",3
"85","University of Minnesota Twin Cities*",3
"89","University of North Carolina at Chapel Hill",3
"101","University of Southern California",3
"104","University of Utah",3
"107","University of Wisconsin-Madison",3
"3","Baylor University",4
"5","Boston College",4
"6","Boston University",4
"11","Cornell University",4
"14","Duquesne University",4
"15","Emory University",4
"17","Fordham University",4
"40","Saint Louis University",4
"61","University of California, Riverside",4
"79","University of Kentucky",4
"90","University of Notre Dame",4
"94","University of Pennsylvania",4
"100","University of South Florida",4
"103","University of Toronto",4
"110","Villanova University",4
"12","DePaul University",5
"25","Katholieke Universiteit Leuven",5
"29","Macquarie University*",5
"45","State University of New York at Stony Brook",5
"48","The Catholic University of America*",5
"64","University of California, Santa Cruz",5
"65","University of Cambridge",5
"73","University of Guelph",5
"74","University of Hawai'i at Manoa",5
"75","University of Illinois at Chicago",5
"76","University of Illinois at Urbana-Champaign",5
"106","University of Washington",5
"108","University of York",5
"10","Columbia University",6
"56","University of California, Berkeley",6
"58","University of California, Irvine",6
"80","University of Maryland, College Park",6
"84","University of Michigan",6
"93","University of Oxford",6
"111","Washington University in St. Louis",6
"113","Western University",6
"115","Yale University",6
"116","York University",6
"13","Duke University",7
"26","King's College London",7
"27","London School of Economics and Political Science",7
"31","McMaster University",7
"47","Temple University",7
"57","University of California, Davis",7
"68","University of Chicago (CHSS)",7
"87","University of Nebraska, Lincoln",7
"91","University of Oklahoma",7
"97","University of Rochester",7
